<?xml version="1.0" encoding="UTF-8" standalone="no"?>
<!-- Created with Inkscape (http://www.inkscape.org/) -->

<svg
   xmlns:dc="http://purl.org/dc/elements/1.1/"
   xmlns:cc="http://creativecommons.org/ns#"
   xmlns:rdf="http://www.w3.org/1999/02/22-rdf-syntax-ns#"
   xmlns:svg="http://www.w3.org/2000/svg"
   xmlns="http://www.w3.org/2000/svg"
   xmlns:sodipodi="http://sodipodi.sourceforge.net/DTD/sodipodi-0.dtd"
   xmlns:inkscape="http://www.inkscape.org/namespaces/inkscape"
   width="64"
   height="64"
   id="svg13094"
   version="1.1"
   inkscape:version="0.91 r13725"
   sodipodi:docname="neovim.svg">
  <sodipodi:namedview
     id="base"
     pagecolor="#ffffff"
     bordercolor="#666666"
     borderopacity="1.0"
     inkscape:pageopacity="0"
     inkscape:pageshadow="2"
     inkscape:zoom="2.8284273"
     inkscape:cx="22.014776"
     inkscape:cy="25.392774"
     inkscape:document-units="px"
     inkscape:current-layer="svg13094"
     showgrid="true"
     inkscape:snap-bbox="true"
     inkscape:bbox-paths="true"
     inkscape:bbox-nodes="true"
     inkscape:snap-bbox-edge-midpoints="true"
     inkscape:snap-bbox-midpoints="true"
     inkscape:object-paths="true"
     inkscape:snap-intersection-paths="true"
     inkscape:object-nodes="true"
     inkscape:snap-smooth-nodes="true"
     inkscape:snap-midpoints="true"
     inkscape:snap-object-midpoints="true"
     inkscape:snap-center="true"
     showguides="true"
     inkscape:guide-bbox="true"
     inkscape:window-width="1880"
     inkscape:window-height="1048"
     inkscape:window-x="40"
     inkscape:window-y="32"
     inkscape:window-maximized="1"
     inkscape:snap-global="true"
     fit-margin-top="0"
     fit-margin-left="0"
     fit-margin-right="0"
     fit-margin-bottom="0"
     showborder="true"
     inkscape:showpageshadow="false"
     inkscape:snap-page="true">
    <inkscape:grid
       type="xygrid"
       id="grid3075"
       empspacing="5"
       visible="true"
       enabled="true"
       snapvisiblegridlinesonly="true"
       originx="1.6362304e-08px"
       originy="18px" />
  </sodipodi:namedview>
  <defs
     id="defs13096" />
  <metadata
     id="metadata13099">
    <rdf:RDF>
      <cc:Work
         rdf:about="">
        <dc:format>image/svg+xml</dc:format>
        <dc:type
           rdf:resource="http://purl.org/dc/dcmitype/StillImage" />
        <dc:title />
      </cc:Work>
    </rdf:RDF>
  </metadata>
  <path
     inkscape:connector-curvature="0"
     style="color:#000000;fill:#455A64;fill-opacity:1;fill-rule:nonzero;stroke:none;stroke-width:2.28571415000000000;marker:none;visibility:visible;display:inline;overflow:visible;enable-background:accumulate"
     d="m 0,4 0,30 0,28 2,2 30,0 30,0 2,-2 L 64,34 64,4 32,4 0,4 z"
     id="path6498-9" />
  <path
     inkscape:connector-curvature="0"
     style="color:#000000;fill:#56707d;fill-opacity:1;fill-rule:nonzero;stroke:none;marker:none;visibility:visible;display:inline;overflow:visible;enable-background:accumulate"
     d="M 2,0 0,1 0,4 32,4 64,4 64,1 62,0 32,0 2,0 z"
     id="path6502-0" />
  <path
     inkscape:connector-curvature="0"
     style="fill:#56707d;fill-opacity:1;fill-rule:nonzero"
     d="M 0,3 0,6 2,4 z"
     id="path4298-0"
     sodipodi:nodetypes="cccc" />
  <path
     d="M 64,6 62,4 64,3 z"
     id="path3028-6"
     style="fill:#56707d;fill-opacity:1"
     inkscape:connector-curvature="0" />
  <g
     id="g3043"
     inkscape:export-filename="folder.png"
     inkscape:export-xdpi="90"
     inkscape:export-ydpi="90"
     transform="translate(-0.62500009,0.082283)" />
  <g
     id="scalable"
     transform="matrix(1.0385892,0,0,1.0385892,1214.7222,1878.8121)"
     inkscape:label="#g3701"
     style="fill:#ffffff" />
  <path
     d="m 52.87826,48.154019 c 0,0 -11.361963,9.458834 -11.361963,9.458834 0,0 0,-49.225706 0,-49.225706 0,0 11.361963,9.458835 11.361963,9.458835 0,0 0,30.308037 0,30.308037 z"
     style="fill:#6ba63f;fill-opacity:1"
     id="path13"
     inkscape:connector-curvature="0" />
  <path
     d="m 11.20826,48.154019 c 0,0 11.361963,9.458834 11.361963,9.458834 0,0 0,-49.225706 0,-49.225706 0,0 -11.361963,9.458835 -11.361963,9.458835 0,0 0,30.308037 0,30.308037 z"
     style="fill:#42afe6;fill-opacity:1"
     id="path15"
     inkscape:connector-curvature="0" />
  <path
     d="m 41.516297,37.74362 c 2.613251,6.618343 1.207208,13.250889 0,19.869233 0,0 -18.946074,-29.029816 -18.946074,-29.029816 -1.860521,-6.845583 -2.300797,-13.605951 0,-20.19589 0,0 18.946074,29.356473 18.946074,29.356473 z"
     style="fill:#96ca6b;fill-opacity:1"
     id="path17"
     inkscape:connector-curvature="0" />
  <path
     d="m 41.516297,37.74362 c 0,0 8.521472,12.768006 8.521472,12.768006 0,0 -8.521472,7.101227 -8.521472,7.101227 0,0 0,-19.869233 0,-19.869233 0,0 0,0 0,0 z"
     style="fill:#569e41;fill-opacity:1"
     id="path19"
     inkscape:connector-curvature="0" />
  <path
     d="m 22.570223,28.583037 c 0,0 -8.535675,-13.094663 -8.535675,-13.094663 0,0 8.535675,-7.101227 8.535675,-7.101227 0,0 0,20.19589 0,20.19589 z"
     style="fill:#70be63;fill-opacity:1"
     id="path21"
     inkscape:connector-curvature="0" />
</svg>
